%YAML 1.1
%TAG !u! tag:unity3d.com,2011:
--- !u!114 &-8713673922255011407
MonoBehaviour:
  m_ObjectHideFlags: 11
  m_CorrespondingSourceObject: {fileID: 0}
  m_PrefabInstance: {fileID: 0}
  m_PrefabAsset: {fileID: 0}
  m_GameObject: {fileID: 0}
  m_Enabled: 1
  m_EditorHideFlags: 0
  m_Script: {fileID: 11500000, guid: d0353a89b1f911e48b9e16bdc9f2e058, type: 3}
  m_Name: 
  m_EditorClassIdentifier: 
  version: 5
--- !u!21 &2100000
Material:
  serializedVersion: 8
  m_ObjectHideFlags: 0
  m_CorrespondingSourceObject: {fileID: 0}
  m_PrefabInstance: {fileID: 0}
  m_PrefabAsset: {fileID: 0}
  m_Name: Env_HeroCave
  m_Shader: {fileID: 4800000, guid: 7cd247c7cbda54323b0e395ea419af3d, type: 3}
  m_ValidKeywords: []
  m_InvalidKeywords:
  - _GLOSSINESS_FROM_BASE_ALPHA
  - _NORMALMAP
  - _SPECULAR_COLOR
  m_LightmapFlags: 4
  m_EnableInstancingVariants: 0
  m_DoubleSidedGI: 1
  m_CustomRenderQueue: -1
  stringTagMap: {}
  disabledShaderPasses: []
  m_SavedProperties:
    serializedVersion: 3
    m_TexEnvs:
    - Texture2D_C005B064:
        m_Texture: {fileID: 2800000, guid: 749d98ca73398436c9d7d4552bfafc30, type: 3}
        m_Scale: {x: 1, y: 1}
        m_Offset: {x: 0, y: 0}
    - Texture2D_D7D66558:
        m_Texture: {fileID: 2800000, guid: d389fa646f8a74bae9368b04367ad643, type: 3}
        m_Scale: {x: 1, y: 1}
        m_Offset: {x: 0, y: 0}
    - Texture2D_DE8BF47E:
        m_Texture: {fileID: 2800000, guid: 740e8b31621476e4e8f481c0d5ea409e, type: 3}
        m_Scale: {x: 1, y: 1}
        m_Offset: {x: 0, y: 0}
    - _MainTex:
        m_Texture: {fileID: 2800000, guid: 6084e409e86900347aa9f1764888c422, type: 3}
        m_Scale: {x: 1, y: 1}
        m_Offset: {x: 0, y: 0}
    - _SampleTexture2D_653414c091bd4cd3adbc652155df110b_Texture_1:
        m_Texture: {fileID: 2800000, guid: 0732d346e038a499bacca628b5dc8f4a, type: 3}
        m_Scale: {x: 1, y: 1}
        m_Offset: {x: 0, y: 0}
    - _SampleTexture2D_EF77D572_Texture_1:
        m_Texture: {fileID: 2800000, guid: 0732d346e038a499bacca628b5dc8f4a, type: 3}
        m_Scale: {x: 1, y: 1}
        m_Offset: {x: 0, y: 0}
    - _SampleTexture2D_a490b3241735d68e9ee2d1f1bbfed8dc_Texture_1:
        m_Texture: {fileID: 0}
        m_Scale: {x: 1, y: 1}
        m_Offset: {x: 0, y: 0}
    - unity_Lightmaps:
        m_Texture: {fileID: 0}
        m_Scale: {x: 1, y: 1}
        m_Offset: {x: 0, y: 0}
    - unity_LightmapsInd:
        m_Texture: {fileID: 0}
        m_Scale: {x: 1, y: 1}
        m_Offset: {x: 0, y: 0}
    - unity_ShadowMasks:
        m_Texture: {fileID: 0}
        m_Scale: {x: 1, y: 1}
        m_Offset: {x: 0, y: 0}
    m_Ints: []
    m_Floats:
    - Vector1_6E11FCEA: 0.8
    - Vector1_8B35DE98: 65
    - Vector1_90E376AD: 0.5
    - Vector1_A492C01C: 10.3
    - _QueueControl: 0
    - _QueueOffset: 0
    m_Colors: []
  m_BuildTextureStacks: []
